{"w7", "f3", "f5", "0", "0", "g5", "0"},
{"f5", "0", "w5", "g5", "w5", "0", "0"},
{"0", "0", "0", "0", "0", "g3", "0"},
{"0", "0", "w3", "0", "w1", "0", "g7"},
{"g3", "0", "f5", "0", "0", "w1", "0"},
{"0", "w1", "f5", "f5", "0", "g5", "0"},
{"0", "f7", "g1", "f1", "0", "0", "0"},



{"0", "0", "w7", "0", "0", "0", "0"},
{"0", "0", "w1", "0", "0", "f1", "f5"},
{"0", "0", "0", "0", "g3", "w5", "0"},
{"0", "w3", "0", "0", "0", "0", "0"},
{"0", "w5", "0", "0", "0", "f3", "w1"},
{"0", "g5", "0", "g3", "0", "0", "f1"},
{"g3", "w1", "f7", "0", "w7", "0", "g5"},

{"0", "0", "0", "0", "0", "0", "0"},
{"0", "0", "w5", "0", "w7", "f5", "0"},
{"f7", "0", "w3", "0", "0", "0", "w3"},
{"w7", "0", "f7", "0", "0", "0", "0"},
{"0", "f1", "f1", "0", "0", "g7", "w5"},
{"f1", "0", "w1", "0", "0", "0", "0"},
{"0", "0", "0", "g5", "0", "f7", "0"},


 {"w5", "f7", "0", "g7", "0", "g7", "w1"}, 108 ????
{"0", "0", "0", "0", "0", "0", "0"},
{"0", "0", "0", "g1", "0", "w7", "0"},
{"g1", "f7", "0", "0", "g3", "0", "0"},
{"0", "f7", "0", "0", "0", "0", "0"},
{"0", "g1", "0", "0", "0", "w5", "0"},
{"w3", "0", "0", "0", "0", "0", "0"},




{"0", "g5", "f1", "g5", "0", "f3", "g5"},
{"0", "0", "g1", "g7", "0", "0", "w5"},
{"0", "0", "g7", "0", "0", "f7", "g7"},
{"g7", "0", "w5", "w3", "0", "g7", "0"},
{"0", "g3", "f3", "w5", "f1", "0", "g3"},
{"0", "w1", "g3", "0", "0", "w3", "0"},
{"f7", "f7", "g5", "0", "g1", "0", "f3"}, // 72


{"w3", "0", "0", "0", "0", "g7", "0"},
{"0", "w1", "0", "0", "0", "0", "0"},
{"0", "0", "f3", "0", "0", "0", "0"},
{"0", "0", "0", "f5", "w5", "f3", "g1"},
{"0", "g3", "0", "g5", "0", "0", "w1"},
{"0", "0", "0", "0", "g3", "0", "0"},
{"0", "0", "0", "0", "0", "f1", "0"}, // 24

{"g1", "0", "f5", "0", "g1", "0", "0"},
{"g5", "0", "0", "g1", "f3", "g7", "g5"},
{"0", "0", "w1", "0", "0", "w3", "w7"},
{"g3", "f5", "0", "0", "0", "0", "0"},
{"0", "0", "0", "0", "0", "w7", "0"},
{"g7", "0", "f3", "0", "0", "0", "0"},
{"0", "0", "0", "g7", "0", "f7", "0"}, // 180

{"f1", "0", "0", "g3", "0", "0", "0"},
{"f1", "0", "0", "0", "0", "g3", "f3"},
{"0", "0", "w1", "0", "f3", "g7", "0"},
{"0", "0", "0", "g7", "f1", "0", "g3"},
{"f5", "0", "g7", "f1", "f1", "g5", "0"},
{"0", "g7", "g1", "0", "0", "f7", "g5"},
{"0", "f3", "0", "f5", "f7", "0", "0"}, // 252

{"0", "f5", "w5", "0", "f3", "0", "f5", "0", "g5", "0"},
{"0", "0", "0", "0", "0", "0", "0", "0", "0", "0"},
{"0", "0", "g3", "0", "0", "0", "0", "w7", "0", "f5"},
{"0", "0", "0", "w7", "0", "0", "0", "w3", "0", "0"},
{"g7", "0", "0", "0", "0", "w7", "0", "0", "g1", "f5"},
{"0", "0", "0", "0", "w1", "0", "0", "0", "g5", "0"},
{"g3", "g3", "0", "0", "0", "g3", "0", "w3", "0", "g7"},
{"0", "0", "g7", "0", "0", "w5", "0", "f1", "0", "0"},
{"g1", "0", "0", "0", "0", "0", "g5", "0", "0", "0"},
{"0", "0", "w3", "f3", "w5", "0", "0", "f5", "f1", "0"}, // 810
